most_repeated_violence_words_analysis
…
Here are these frequent words as list

unique_stems_counted %>% 
  filter(occurances > 20)

## # A tibble: 178 x 2
##    stem     occurances
##    <chr>         <dbl>
##  1 violenc        1393
##  2 african         618
##  3 darfur          498
##  4 congo           447
##  5 sudan           423
##  6 kenya           329
##  7 unit            245
##  8 nation          223
##  9 rebel           220
## 10 conflict        219
## #  with 168 more rows
…
